WSP R Open Question Analysis
…
# Clean text
words_df$Words <- tolower(words_df$Words)#convert all text to lower case
words_df$Words <- gsub("[^[:graph:]]", " ", words_df$Words) #get rid of non graphical characters
words_df$Words <- gsub("a ", "", words_df$Words)# Remove single 'a' words
words_df$Words <- gsub("one", "", words_df$Words)# Remove one words
words_df$Words <- gsub("[[:punct:]]", "", words_df$Words)# Remove punctuation
words_df$Words <- gsub("^ ", "", words_df$Words)# Remove blank spaces at the beginning
words_df$Words <- gsub(" $", "", words_df$Words)# Remove blank spaces at the end
words_df$Words <- gsub("[ |\t]{2,}", "", words_df$Words)# Remove tabs
# words_df$Words <- gsub(" ", "", words_df$Words)# Replace blank spaces with _
head(words_df, 50)

## # A tibble: 50 x 4
##    UniqueID_short SurveyType Word_num  Words      
##             <int> <fct>      <chr>     <chr>      
##  1              1 Proactive  Q11_word1 "leg"      
##  2              1 Proactive  Q11_word2 "babies"   
##  3              1 Proactive  Q11_word3 ""         
##  4              2 Proactive  Q11_word1 "white"    
##  5              2 Proactive  Q11_word2 "long legs"
##  6              2 Proactive  Q11_word3 "bird"     
##  7              3 Proactive  Q11_word1 ""         
##  8              3 Proactive  Q11_word2 ""         
##  9              3 Proactive  Q11_word3 ""         
## 10              4 Proactive  Q11_word1 "hope"     
## #  with 40 more rows
…
