WSP closed question analysis
…
## Warning: attributes are not identical across measure variables;
## they will be dropped

## # A tibble: 24 x 5
## # Groups:   SiteLocal, Diet [24]
##    SiteLocal Diet                     Answer  count percent
##    <fct>     <chr>                    <chr>   <int>   <dbl>
##  1 Local     Q5a_amphibians_diet      Correct   525   51.8 
##  2 Local     Q5b_birdeggs.chicks_diet Correct   222   21.9 
##  3 Local     Q5c_carrion_diet         Correct    97    9.57
##  4 Local     Q5d_fish_diet            Correct   554   54.6 
##  5 Local     Q5e_foodwaste_diet       Correct    83    8.19
##  6 Local     Q5f_fruit_diet           Correct    67    6.61
##  7 Local     Q5g_inverts_diet         Correct   507   50   
##  8 Local     Q5h_reptiles_diet        Correct   307   30.3 
##  9 Local     Q5i_seeds_diet           Correct    82    8.09
## 10 Local     Q5j_smallmammals_diet    Correct   291   28.7 
## #  with 14 more rows
…
Q10a) [if selected any option apart from Nothing] Where have you heard about the white stork reintroduction project?

[multi-select] White Stork Project website; Social media; TV/Radio; Newspaper; Email; Magazine; Leaflet; Talk by a project spokesperson; Visiting Knepp Estate; Word of mouth; Other

## # A tibble: 23 x 5
## # Groups:   SurveyType, Q10_cursource [23]
##    SurveyType Q10_cursource      Answer     n Percent
##    <fct>      <chr>              <chr>  <int>   <dbl>
##  1 NatRep     Q10a_Email         1         18    6.87
##  2 NatRep     Q10a_Leaflet       1         12    4.58
##  3 NatRep     Q10a_Magazine      1         32   12.2 
##  4 NatRep     Q10a_Newspaper     1         45   17.2 
##  5 NatRep     Q10a_Other         1         12    4.58
##  6 NatRep     Q10a_Socialmedia   1         66   25.2 
##  7 NatRep     Q10a_spokesperson  1          7    2.67
##  8 NatRep     Q10a_TV.Radio      1         82   31.3 
##  9 NatRep     Q10a_VisitingKnepp 1          5    1.91
## 10 NatRep     Q10a_Wordofmouth   1         36   13.7 
## #  with 13 more rows
…
White storks might be detrimental to local wildlife.

There is no need to reintroduce the white stork to England as it is common throughout mainland Europe

I think white storks are useless birds.

White storks are part of our cultural and natural heritage

The reintroduced white stork can help people (re)connect with the natural world.

The countryside will be worse off with white storks around.

Overall, I support efforts that aim to reintroduce the UKs lost species and restore its natural systems.

## # A tibble: 3,699 x 5
## # Groups:   SurveyType, Attitude_questions [30]
##    SurveyType Attitude_questions                       Answer          n Percent
##    <fct>      <chr>                                    <chr>       <int>   <dbl>
##  1 NatRep     Q12.1..White.storks.symbolise.the.beaut Agree         479   41.9 
##  2 NatRep     Q12.1..White.storks.symbolise.the.beaut Disagree       21    1.84
##  3 NatRep     Q12.1..White.storks.symbolise.the.beaut Don't know     42    3.67
##  4 NatRep     Q12.1..White.storks.symbolise.the.beaut Neutral       223   19.5 
##  5 NatRep     Q12.1..White.storks.symbolise.the.beaut Strongly a   354   31.0 
##  6 NatRep     Q12.1..White.storks.symbolise.the.beaut Strongly d    24    2.10
##  7 NatRep     Q12.2..White.storks.play.an.important.r Agree         437   38.2 
##  8 NatRep     Q12.2..White.storks.play.an.important.r Disagree       22    1.92
##  9 NatRep     Q12.2..White.storks.play.an.important.r Don't know    180   15.7 
## 10 NatRep     Q12.2..White.storks.play.an.important.r Neutral       238   20.8 
## #  with 3,689 more rows
…
## [1] 3531

## # A tibble: 142 x 5
## # Groups:   County, Management_options [142]
##    County Management_options           Answer     n Percent
##    <fct>  <chr>                         <int> <int>   <dbl>
##  1 ""     Q17_11.management.not.needed      1    50   1.42 
##  2 ""     Q17.1_Nest_monitoring             1   743  21.0  
##  3 ""     Q17.10_Culling                    1    70   1.98 
##  4 ""     Q17.12_Don.tknow                  1    60   1.70 
##  5 ""     Q17.13_other                      1    17   0.481
##  6 ""     Q17.2_Nesting_platforms           1   718  20.3  
##  7 ""     Q17.3_Discouragenestbuilding      1   152   4.30 
##  8 ""     Q17.4_Nest_removal                1    84   2.38 
##  9 ""     Q17.5_Tracking                    1   681  19.3  
## 10 ""     Q17.6_Public_engagement           1   697  19.7  
## #  with 132 more rows
…
## 1                          0              0
## 2                          0              1
## 3                          0              0
## 4                          0              1
## 5                          0              1
## 6                          0              1
##   Q18a.don.t.spend.free.time.in.green.natural.spaces
## 1                                                  0
## 2                                                  0
## 3                                                  0
## 4                                                  0
## 5                                                  0
## 6                                                  0

## # A tibble: 22 x 5
## # Groups:   SurveyType, Activities [22]
##    SurveyType Activities        Answer     n Percent
##    <fct>      <chr>              <int> <int>   <dbl>
##  1 NatRep     Wildlife watching      1   176   15.4 
##  2 NatRep     Camping                1    70    6.12
##  3 NatRep     I don't                1    90    7.87
##  4 NatRep     Fishing                1    49    4.29
##  5 NatRep     Gardening              1   444   38.8 
##  6 NatRep     Golf                   1    47    4.11
##  7 NatRep     Horse riding           1    17    1.49
##  8 NatRep     Photography            1   177   15.5 
##  9 NatRep     Picnic                 1   156   13.6 
## 10 NatRep     Shooting/hunting       1    15    1.31
## #  with 12 more rows
…
## 1                                     Agree    Neither agree or disagree
## 2                          Completely agree             Completely agree
## 3                          Completely agree             Completely agree
## 4                                  Disagree                     Disagree
## 5                          Completely agree             Completely agree
## 6                            Strongly agree               Strongly agree
##   SurveyType SiteLocal UniqueID_all
## 1  Proactive     Local            1
## 2  Proactive Not local            2
## 3  Proactive Not local            3
## 4  Proactive Not local            4
## 5  Proactive Not local            5
## 6  Proactive     Local            6

## # A tibble: 3,619 x 5
## # Groups:   SurveyType, NCI_questions [16]
##    SurveyType NCI_questions                       Answer               n Percent
##    <fct>      <chr>                               <chr>            <int>   <dbl>
##  1 NatRep     Q19.1..I.find.being.in.nature.real Agree              433   37.9 
##  2 NatRep     Q19.1..I.find.being.in.nature.real Completely agree   183   16.0 
##  3 NatRep     Q19.1..I.find.being.in.nature.real Completely disa    22    1.92
##  4 NatRep     Q19.1..I.find.being.in.nature.real Disagree            34    2.97
##  5 NatRep     Q19.1..I.find.being.in.nature.real Neither agree o   155   13.6 
##  6 NatRep     Q19.1..I.find.being.in.nature.real Strongly agree     290   25.4 
##  7 NatRep     Q19.1..I.find.being.in.nature.real Strongly disagr    26    2.27
##  8 NatRep     Q19.2..Spending.time.in.nature.is. Agree              396   34.6 
##  9 NatRep     Q19.2..Spending.time.in.nature.is. Completely agree   170   14.9 
## 10 NatRep     Q19.2..Spending.time.in.nature.is. Completely disa    14    1.22
## #  with 3,609 more rows
…
##            
##               No  Yes
##   NatRep     727   13
##   Proactive 1032  711

### Check assumptions
## Normality using Shapiro
score_data %>% 
  dplyr::group_by(SiteProximity, SurveyType) %>%
  rstatix::shapiro_test(OverallAttitudeScore, KnowledgeScore, NCI,
         ProCoBS, BirdInterestScore, EnvConcern.score)

## # A tibble: 24 x 5
##    SiteProximity SurveyType variable             statistic        p
##    <fct>         <fct>      <chr>                    <dbl>    <dbl>
##  1 No            NatRep     BirdInterestScore        0.971 3.50e-14
##  2 No            NatRep     EnvConcern.score         0.855 5.90e-31
##  3 No            NatRep     KnowledgeScore           0.974 2.03e-13
##  4 No            NatRep     NCI                      0.920 6.80e-24
##  5 No            NatRep     OverallAttitudeScore     0.973 2.93e-10
##  6 No            NatRep     ProCoBS                  0.967 3.41e-15
##  7 No            Proactive  BirdInterestScore        0.799 3.26e-38
##  8 No            Proactive  EnvConcern.score         0.484 1.07e-52
##  9 No            Proactive  KnowledgeScore           0.958 2.21e-19
## 10 No            Proactive  NCI                      0.904 1.74e-28
## #  with 14 more rows
…
