WSP closed question analysis
…
Q5) What do white storks typically eat?

[multi-select] Amphibians; Fish; Invertebrates; Reptiles; Small mammals; Bird eggs/chicks; Carrion; Food waste; Vegetation; Seeds; Fruit; Dont know

## # A tibble: 24 x 5
## # Groups:   SurveyType, Diet [24]
##    SurveyType Diet                     Answer  count percent
##    <fct>      <chr>                    <chr>   <int>   <dbl>
##  1 NatRep     Q5a_amphibians_diet      Correct   228   19.9 
##  2 NatRep     Q5b_birdeggs.chicks_diet Correct   142   12.4 
##  3 NatRep     Q5c_carrion_diet         Correct    63    5.51
##  4 NatRep     Q5d_fish_diet            Correct   651   57.0 
##  5 NatRep     Q5e_foodwaste_diet       Correct    67    5.86
##  6 NatRep     Q5f_fruit_diet           Correct    51    4.46
##  7 NatRep     Q5g_inverts_diet         Correct   256   22.4 
##  8 NatRep     Q5h_reptiles_diet        Correct   137   12.0 
##  9 NatRep     Q5i_seeds_diet           Correct    78    6.82
## 10 NatRep     Q5j_smallmammals_diet    Correct   141   12.3 
## #  with 14 more rows
…
Q10a) [if selected any option apart from Nothing] Where have you heard about the white stork reintroduction project?

[multi-select] White Stork Project website; Social media; TV/Radio; Newspaper; Email; Magazine; Leaflet; Talk by a project spokesperson; Visiting Knepp Estate; Word of mouth; Other

## # A tibble: 23 x 5
## # Groups:   SurveyType, Q10_cursource [23]
##    SurveyType Q10_cursource      Answer     n Percent
##    <fct>      <chr>              <chr>  <int>   <dbl>
##  1 NatRep     Q10a_Email         1         18    6.87
##  2 NatRep     Q10a_Leaflet       1         12    4.58
##  3 NatRep     Q10a_Magazine      1         32   12.2 
##  4 NatRep     Q10a_Newspaper     1         45   17.2 
##  5 NatRep     Q10a_Other         1         12    4.58
##  6 NatRep     Q10a_Socialmedia   1         66   25.2 
##  7 NatRep     Q10a_spokesperson  1          7    2.67
##  8 NatRep     Q10a_TV.Radio      1         82   31.3 
##  9 NatRep     Q10a_VisitingKnepp 1          5    1.91
## 10 NatRep     Q10a_Wordofmouth   1         36   13.7 
## #  with 13 more rows
…
## # A tibble: 3,651 x 5
## # Groups:   SurveyType, Attitude_questions [22]
##    SurveyType Attitude_questions                        Answer         n Percent
##    <fct>      <chr>                                     <chr>      <int>   <dbl>
##  1 NatRep     Q13.1..I.would.find.it.exciting.to.see.w Agree        420   36.7 
##  2 NatRep     Q13.1..I.would.find.it.exciting.to.see.w Disagree      25    2.19
##  3 NatRep     Q13.1..I.would.find.it.exciting.to.see.w Don't know    36    3.15
##  4 NatRep     Q13.1..I.would.find.it.exciting.to.see.w Neutral      196   17.1 
##  5 NatRep     Q13.1..I.would.find.it.exciting.to.see.w Strongly    437   38.2 
##  6 NatRep     Q13.1..I.would.find.it.exciting.to.see.w Strongly     29    2.54
##  7 NatRep     Q13.2..White.storks.symbolise.hope..rebi Agree        380   33.2 
##  8 NatRep     Q13.2..White.storks.symbolise.hope..rebi Disagree      45    3.94
##  9 NatRep     Q13.2..White.storks.symbolise.hope..rebi Don't know    72    6.30
## 10 NatRep     Q13.2..White.storks.symbolise.hope..rebi Neutral      332   29.0 
## #  with 3,641 more rows
…
## 1                      1              0                            0
## 2                      0              0                            0
## 3                      1              0                            0
## 4                      1              0                            0
## 5                      0              0                            0
## 6                      0              0                            0
##   Q17.12_Don.tknow Q17.13_other
## 1                0            0
## 2                1            0
## 3                0            0
## 4                0            0
## 5                0            0
## 6                1            0

## # A tibble: 26 x 5
## # Groups:   SurveyType, Management_options [26]
##    SurveyType Management_options           Answer     n Percent
##    <fct>      <chr>                         <int> <int>   <dbl>
##  1 NatRep     Q17_11.management.not.needed      1    50   4.37 
##  2 NatRep     Q17.1_Nest_monitoring             1   587  51.4  
##  3 NatRep     Q17.10_Culling                    1    49   4.29 
##  4 NatRep     Q17.12_Don.tknow                  1   302  26.4  
##  5 NatRep     Q17.13_other                      1     3   0.262
##  6 NatRep     Q17.2_Nesting_platforms           1   576  50.4  
##  7 NatRep     Q17.3_Discouragenestbuilding      1    41   3.59 
##  8 NatRep     Q17.4_Nest_removal                1    40   3.50 
##  9 NatRep     Q17.5_Tracking                    1   475  41.6  
## 10 NatRep     Q17.6_Public_engagement           1   371  32.5  
## #  with 16 more rows
…
## 1                          0              0
## 2                          0              1
## 3                          0              0
## 4                          0              1
## 5                          0              1
## 6                          0              1
##   Q18a.don.t.spend.free.time.in.green.natural.spaces
## 1                                                  0
## 2                                                  0
## 3                                                  0
## 4                                                  0
## 5                                                  0
## 6                                                  0

## # A tibble: 22 x 5
## # Groups:   SurveyType, Activities [22]
##    SurveyType Activities        Answer     n Percent
##    <fct>      <chr>              <int> <int>   <dbl>
##  1 NatRep     Wildlife watching      1   176   15.4 
##  2 NatRep     Camping                1    70    6.12
##  3 NatRep     I don't                1    90    7.87
##  4 NatRep     Fishing                1    49    4.29
##  5 NatRep     Gardening              1   444   38.8 
##  6 NatRep     Golf                   1    47    4.11
##  7 NatRep     Horse riding           1    17    1.49
##  8 NatRep     Photography            1   177   15.5 
##  9 NatRep     Picnic                 1   156   13.6 
## 10 NatRep     Shooting/hunting       1    15    1.31
## #  with 12 more rows
…
## 1                                     Agree    Neither agree or disagree
## 2                          Completely agree             Completely agree
## 3                          Completely agree             Completely agree
## 4                                  Disagree                     Disagree
## 5                          Completely agree             Completely agree
## 6                            Strongly agree               Strongly agree
##   SurveyType UniqueID_all
## 1  Proactive            1
## 2  Proactive            2
## 3  Proactive            3
## 4  Proactive            4
## 5  Proactive            5
## 6  Proactive            6

## # A tibble: 3,615 x 5
## # Groups:   SurveyType, NCI_questions [14]
##    SurveyType NCI_questions                       Answer               n Percent
##    <fct>      <chr>                               <chr>            <int>   <dbl>
##  1 NatRep     Q19.1..I.find.being.in.nature.real Agree              433   37.9 
##  2 NatRep     Q19.1..I.find.being.in.nature.real Completely agree   183   16.0 
##  3 NatRep     Q19.1..I.find.being.in.nature.real Completely disa    22    1.92
##  4 NatRep     Q19.1..I.find.being.in.nature.real Disagree            34    2.97
##  5 NatRep     Q19.1..I.find.being.in.nature.real Neither agree o   155   13.6 
##  6 NatRep     Q19.1..I.find.being.in.nature.real Strongly agree     290   25.4 
##  7 NatRep     Q19.1..I.find.being.in.nature.real Strongly disagr    26    2.27
##  8 NatRep     Q19.2..Spending.time.in.nature.is. Agree              396   34.6 
##  9 NatRep     Q19.2..Spending.time.in.nature.is. Completely agree   170   14.9 
## 10 NatRep     Q19.2..Spending.time.in.nature.is. Completely disa    14    1.22
## #  with 3,605 more rows
…
